// Jest Snapshot v1, https://goo.gl/fbAQLP

exports[`CommonButton Tests render correctly 1`] = `
<View
  accessibilityState={
    {
      "busy": undefined,
      "checked": undefined,
      "disabled": false,
      "expanded": undefined,
      "selected": undefined,
    }
  }
  accessibilityValue={
    {
      "max": undefined,
      "min": undefined,
      "now": undefined,
      "text": undefined,
    }
  }
  accessible={true}
  collapsable={false}
  focusable={true}
  onClick={[Function]}
  onResponderGrant={[Function]}
  onResponderMove={[Function]}
  onResponderRelease={[Function]}
  onResponderTerminate={[Function]}
  onResponderTerminationRequest={[Function]}
  onStartShouldSetResponder={[Function]}
  style={
    {
      "borderColor": "#8B939F",
      "borderRadius": 30,
      "borderWidth": 1,
      "height": 48,
      "justifyContent": "center",
      "opacity": 1,
      "paddingHorizontal": 10,
      "paddingVertical": 10,
    }
  }
>
  <View
    style={
      {
        "alignItems": "center",
        "flexDirection": "row",
        "justifyContent": "center",
      }
    }
  >
    <Text
      style={
        [
          {
            "fontFamily": "WorkSansMedium",
            "fontSize": 16,
            "textAlign": "center",
          },
          {
            "color": "#343440",
          },
          false,
          false,
        ]
      }
    />
  </View>
</View>
`;
